{
    "KPlugin": {
        "Name": "Fancontrold",
        "Description": "Control fancontrold",
        "FormFactors": [
            "desktop"
        ],
        "Icon": "org.kde.fancontrold.gui",
        "License": "GPL_V2",
        "Authors": [
            { "Name": "Malte Veerman", "Email": "malte.veerman@gmail.com" }
        ],
        "Version": "0.1",
        "Website": "https://gitlab.com/Maldela/fancontrold-gui",
        "BugReportUrl": "https://gitlab.com/Maldela/fancontrold-gui/-/issues"
    },
    "X-KDE-Keywords": "Fan,Fancontrol,Fancontrold,Sensors",
    "X-KDE-System-Settings-Parent-Category": "hardware"
}
