{
    "KPlugin": {
        "Authors": [
            {
                "Email": "malte.veerman@gmail.com",
                "Name": "Malte Veerman"
            }
        ],
        "Description": "Control PWM-fans",
        "Description[hu]": "PWM-ventiláltorok vezérlése",
        "Icon": "org.kde.fancontrold.gui",
        "Id": "org.kde.fancontrold.gui",
        "License": "GPL",
        "Name": "Fancontrold-GUI-QML-Package",
        "ServiceTypes": [
            "Plasma/Generic"
        ],
        "Version": "0.4",
        "Website": ""
    },
    "Keywords": "",
    "X-Plasma-API": "declarativeappletscript",
    "X-Plasma-MainScript": "ui/Application.qml"
}
